{
    "version": "https://jsonfeed.org/version/1",
    "title": "iDocs",
    "description": "",
    "home_page_url": "https://iqbalbash.gitlab.io/docs",
    "feed_url": "https://iqbalbash.gitlab.io/docs/feed.json",
    "user_comment": "",
    "author": {
        "name": "iqbalbash"
    },
    "items": [
    ]
}
